{"payload":{"content":[{"created_at":"2021-05-06T07:48:50.302+0000","updated_at":"2021-05-10T04:54:59.591+0000","super_prod_sku":"SSK-0251","prod_sku":"SKU-0315","brand":null,"display_name":"Tur Daal  - 1Kg","thumbnail":"https://aftwhtbtmp.cloudimg.io/v7/storage.googleapis.com/shy-pub/28052/1620312695079_toor-dal.png","rank":0,"root_cat_slug":null,"cat_slug":"pulses-provisions-28052","mrp":120.0,"cat_name":"Pulses","org_id":28052,"tax_group":{"created_at":"2020-07-12T11:18:00.553+0000","updated_at":"2021-05-10T04:54:59.591+0000","id":"5e18981f6e284b051e8fd21e","name":"GST@12%","cgst":6.0,"igst":12.0,"sgst":6.0,"utgst":0.0,"total":12.0},"qty":100.0,"sale_price":110.0,"product_variants":[{"prod_sku":"SKU-0315","display_name":"Tur Daal  - 1Kg","thumbnail":"https://storage.googleapis.com/shy-pub/28052/1620312695079_toor-dal.png","mrp":120.0,"qty":100.0,"sale_price":110.0,"extra_product_fields":[{"ef_id":9560,"slug":"category","name":"Category","type":"TEXT","val":"1Kg"}],"show_online":true},{"prod_sku":"SKU-0318","display_name":"Tur Daal  - 500g","thumbnail":"https://storage.googleapis.com/shy-pub/28052/1620312695079_toor-dal.png","mrp":60.0,"qty":25.0,"sale_price":55.0,"extra_product_fields":[{"ef_id":9560,"slug":"category","name":"Category","type":"TEXT","val":"500g"}],"show_online":true},{"prod_sku":"SKU-0319","display_name":"Tur Daal  - 5Kg","thumbnail":"https://aftwhtbtmp.cloudimg.io/v7/storage.googleapis.com/shy-pub/28052/1620312695079_toor-dal.png","mrp":600.0,"qty":10.0,"sale_price":550.0,"extra_product_fields":[{"ef_id":9560,"slug":"category","name":"Category","type":"TEXT","val":"5Kg"}],"show_online":true},{"prod_sku":"SKU-0317","display_name":"Tur Daal  - 2Kg","thumbnail":"https://storage.googleapis.com/shy-pub/28052/1620312695079_toor-dal.png","mrp":240.0,"qty":19.0,"sale_price":220.0,"extra_product_fields":[{"ef_id":9560,"slug":"category","name":"Category","type":"TEXT","val":"2Kg"}],"show_online":true}],"sp_tax_included":true,"show_online":true},{"created_at":"2021-05-10T08:38:52.324+0000","updated_at":"2021-05-10T08:40:20.564+0000","super_prod_sku":"SSK-0293","prod_sku":"SKU-0372","brand":"","display_name":"Egg - 1pc","thumbnail":"https://aftwhtbtmp.cloudimg.io/v7/storage.googleapis.com/shy-pub/28052/1620635931688_cc_grocery_egg - 1pc.png","rank":0,"root_cat_slug":null,"cat_slug":"grocery-28052","mrp":9.0,"cat_name":"Milk & Egg","org_id":28052,"tax_group":{"created_at":"2021-05-10T08:38:52.330+0000","updated_at":"2021-05-10T08:40:20.564+0000","id":null,"name":null,"cgst":0.0,"igst":0.0,"sgst":0.0,"utgst":0.0,"total":0.0},"qty":100.0,"sale_price":8.0,"product_variants":[{"prod_sku":"SKU-0372","display_name":"Egg - 1pc","thumbnail":"https://storage.googleapis.com/shy-pub/28052/1620635931688_cc_grocery_egg - 1pc.png","mrp":9.0,"qty":100.0,"sale_price":8.0,"extra_product_fields":[{"ef_id":9560,"slug":"category","name":"Category","type":"TEXT","val":"1pc"}],"show_online":true}],"sp_tax_included":true,"show_online":true},{"created_at":"2021-05-06T07:47:59.844+0000","updated_at":"2021-05-06T15:03:35.495+0000","super_prod_sku":"SSK-0250","prod_sku":"SKU-0314","brand":"Aashirvaad","display_name":"Aashirvaad Multigrain Atta - 5Kg","thumbnail":"https://aftwhtbtmp.cloudimg.io/v7/storage.googleapis.com/shy-pub/28052/1620313136053_Aashirvaad-Multigrain-5Kg.png","rank":0,"root_cat_slug":null,"cat_slug":"atta--flour-provisions-28052","mrp":270.0,"cat_name":"Atta & Flour","org_id":28052,"tax_group":{"created_at":"2020-07-12T11:18:00.553+0000","updated_at":"2021-05-06T15:03:35.495+0000","id":"6016e9e9f02c5851c674b75e","name":"GST@5%","cgst":2.5,"igst":5.0,"sgst":2.5,"utgst":0.0,"total":5.0},"qty":98.0,"sale_price":270.0,"product_variants":[{"prod_sku":"SKU-0314","display_name":"Aashirvaad Multigrain Atta - 5Kg","thumbnail":"https://aftwhtbtmp.cloudimg.io/v7/storage.googleapis.com/shy-pub/28052/1620313136053_Aashirvaad-Multigrain-5Kg.png","mrp":270.0,"qty":98.0,"sale_price":270.0,"extra_product_fields":[{"ef_id":9560,"slug":"category","name":"Category","type":"TEXT","val":"5Kg"}],"show_online":true}],"sp_tax_included":true,"show_online":true},{"created_at":"2021-04-29T17:46:46.064+0000","updated_at":"2021-04-29T17:47:38.577+0000","super_prod_sku":"SSK-0236","prod_sku":"SKU-0298","brand":"","display_name":"Surgical Face Mask - Pack of 3","thumbnail":"https://aftwhtbtmp.cloudimg.io/v7/storage.googleapis.com/shy-pub/28052/1619718403476_Surgical_Face_Mask-1.png","rank":0,"root_cat_slug":null,"cat_slug":"covid-essentials-28052","mrp":40.0,"cat_name":null,"org_id":28052,"tax_group":{"created_at":"2021-04-29T17:47:23.238+0000","updated_at":"2021-04-29T17:47:38.577+0000","id":"5e2bf97538f1128a72e417f8","name":"GST@0%","cgst":0.0,"igst":0.0,"sgst":0.0,"utgst":0.0,"total":0.0},"qty":50.0,"sale_price":35.0,"product_variants":[{"prod_sku":"SKU-0298","display_name":"Surgical Face Mask - Pack of 3","thumbnail":"https://storage.googleapis.com/shy-pub/28052/1619718403476_Surgical_Face_Mask-1.png","mrp":40.0,"qty":50.0,"sale_price":35.0,"extra_product_fields":[{"ef_id":9560,"slug":"category","name":"Category","type":"TEXT","val":"Pack of 3"}],"show_online":true},{"prod_sku":"SKU-0299","display_name":"Surgical Face Mask - Pack of 10","thumbnail":"https://storage.googleapis.com/shy-pub/28052/1619718403476_Surgical_Face_Mask-1.png","mrp":100.0,"qty":20.0,"sale_price":95.0,"extra_product_fields":[{"ef_id":9560,"slug":"category","name":"Category","type":"TEXT","val":"Pack of 10"}],"show_online":true}],"sp_tax_included":true,"show_online":true},{"created_at":"2021-04-28T07:37:07.091+0000","updated_at":"2021-05-13T12:09:39.743+0000","super_prod_sku":"SSK-0222","prod_sku":"SKU-0265","brand":"","display_name":"Garlic (लहसुन) - 100g","thumbnail":"https://aftwhtbtmp.cloudimg.io/v7/storage.googleapis.com/shy-pub/28052/1619595426284_garlic.png","rank":0,"root_cat_slug":null,"cat_slug":"herbs--seasoning-28052","mrp":11.0,"cat_name":"Herbs & Seasoning","org_id":28052,"tax_group":{"created_at":null,"updated_at":"2021-05-13T12:09:39.743+0000","id":null,"name":null,"cgst":0.0,"igst":0.0,"sgst":0.0,"utgst":0.0,"total":0.0},"qty":30.0,"sale_price":10.0,"product_variants":[{"prod_sku":"SKU-0266","display_name":"Garlic (लहसुन) - 200g","thumbnail":"https://aftwhtbtmp.cloudimg.io/v7/storage.googleapis.com/shy-pub/28052/1619595426284_garlic.png","mrp":22.0,"qty":9.0,"sale_price":20.0,"extra_product_fields":[{"ef_id":9560,"slug":"category","name":"Category","type":"TEXT","val":"200g"}],"show_online":true},{"prod_sku":"SKU-0265","display_name":"Garlic (लहसुन) - 100g","thumbnail":"https://aftwhtbtmp.cloudimg.io/v7/storage.googleapis.com/shy-pub/28052/1619595426284_garlic.png","mrp":11.0,"qty":30.0,"sale_price":10.0,"extra_product_fields":[{"ef_id":9560,"slug":"category","name":"Category","type":"TEXT","val":"100g"}],"show_online":true},{"prod_sku":"SKU-0267","display_name":"Garlic (लहसुन) - 500g","thumbnail":"https://aftwhtbtmp.cloudimg.io/v7/storage.googleapis.com/shy-pub/28052/1619595426284_garlic.png","mrp":55.0,"qty":9.0,"sale_price":50.0,"extra_product_fields":[{"ef_id":9560,"slug":"category","name":"Category","type":"TEXT","val":"500g"}],"show_online":true}],"sp_tax_included":true,"show_online":true},{"created_at":"2021-05-10T04:49:14.778+0000","updated_at":"2021-05-10T05:48:10.326+0000","super_prod_sku":"SSK-0289","prod_sku":"SKU-0366","brand":null,"display_name":"Penne Pasta - 500g","thumbnail":"https://aftwhtbtmp.cloudimg.io/v7/storage.googleapis.com/shy-pub/28052/1620625318817_Pasta.png","rank":0,"root_cat_slug":null,"cat_slug":"noodles-instant-food-28052","mrp":110.0,"cat_name":"Noodles & Pasta","org_id":28052,"tax_group":{"created_at":null,"updated_at":"2021-05-10T05:48:10.326+0000","id":null,"name":null,"cgst":0.0,"igst":0.0,"sgst":0.0,"utgst":0.0,"total":0.0},"qty":30.0,"sale_price":95.0,"product_variants":[{"prod_sku":"SKU-0366","display_name":"Penne Pasta - 500g","thumbnail":"https://aftwhtbtmp.cloudimg.io/v7/storage.googleapis.com/shy-pub/28052/1620625318817_Pasta.png","mrp":110.0,"qty":30.0,"sale_price":95.0,"extra_product_fields":[{"ef_id":9560,"slug":"category","name":"Category","type":"TEXT","val":"500g"}],"show_online":true}],"sp_tax_included":true,"show_online":true},{"created_at":"2021-04-23T06:36:00.126+0000","updated_at":"2021-05-10T08:39:16.824+0000","super_prod_sku":"SSK-0188","prod_sku":"SKU-0188","brand":"Egg","display_name":"Eggs -  6pc","thumbnail":"https://aftwhtbtmp.cloudimg.io/v7/storage.googleapis.com/shy-pub/28052/1619161126104_Egg.png","rank":0,"root_cat_slug":null,"cat_slug":"grocery-28052","mrp":55.0,"cat_name":"Milk & Egg","org_id":28052,"tax_group":{"created_at":"2020-07-12T11:18:00.553+0000","updated_at":"2021-05-10T08:39:16.824+0000","id":"6016e9e9f02c5851c674b75e","name":"GST@5%","cgst":2.5,"igst":5.0,"sgst":2.5,"utgst":0.0,"total":5.0},"qty":22.0,"sale_price":50.0,"product_variants":[{"prod_sku":"SKU-0188","display_name":"Eggs -  6pc","thumbnail":"https://aftwhtbtmp.cloudimg.io/v7/storage.googleapis.com/shy-pub/28052/1619161126104_Egg.png","mrp":55.0,"qty":22.0,"sale_price":50.0,"extra_product_fields":[{"ef_id":9560,"slug":"category","name":"Category","type":"TEXT","val":" 6pc"}],"show_online":true}],"sp_tax_included":true,"show_online":true},{"created_at":"2021-04-28T04:59:27.259+0000","updated_at":"2021-05-09T08:38:28.773+0000","super_prod_sku":"SSK-0209","prod_sku":"SKU-0244","brand":"","display_name":"Bottle Gourd (लौकी) - 1pc","thumbnail":"https://aftwhtbtmp.cloudimg.io/v7/storage.googleapis.com/shy-pub/28052/1619585966187_bottlegourd.png","rank":0,"root_cat_slug":null,"cat_slug":"gourds-pumpkin-drumsticks-fresh-vegetables-28052","mrp":32.0,"cat_name":"Gourds, Pumpkin, Drumsticks","org_id":28052,"tax_group":{"created_at":null,"updated_at":"2021-05-09T08:38:28.773+0000","id":null,"name":null,"cgst":0.0,"igst":0.0,"sgst":0.0,"utgst":0.0,"total":0.0},"qty":20.0,"sale_price":29.0,"product_variants":[{"prod_sku":"SKU-0245","display_name":"Bottle Gourd (लौकी) - 2pc","thumbnail":"https://storage.googleapis.com/shy-pub/28052/1619585966187_bottlegourd.png","mrp":60.0,"qty":10.0,"sale_price":55.0,"extra_product_fields":[{"ef_id":9560,"slug":"category","name":"Category","type":"TEXT","val":"2pc"}],"show_online":true},{"prod_sku":"SKU-0244","display_name":"Bottle Gourd (लौकी) - 1pc","thumbnail":"https://aftwhtbtmp.cloudimg.io/v7/storage.googleapis.com/shy-pub/28052/1619585966187_bottlegourd.png","mrp":32.0,"qty":20.0,"sale_price":29.0,"extra_product_fields":[{"ef_id":9560,"slug":"category","name":"Category","type":"TEXT","val":"1pc"}],"show_online":true}],"sp_tax_included":true,"show_online":true},{"created_at":"2021-04-28T07:51:04.509+0000","updated_at":"2021-05-30T10:03:44.322+0000","super_prod_sku":"SSK-0224","prod_sku":"SKU-0271","brand":"","display_name":"Lemon (नींबू) - 2pc","thumbnail":"https://aftwhtbtmp.cloudimg.io/v7/storage.googleapis.com/shy-pub/28052/1619596263892_lemon.png","rank":0,"root_cat_slug":null,"cat_slug":"herbs--seasoning-28052","mrp":12.0,"cat_name":null,"org_id":28052,"tax_group":{"created_at":"2021-04-28T07:51:37.847+0000","updated_at":"2021-05-30T10:03:44.322+0000","id":null,"name":null,"cgst":0.0,"igst":0.0,"sgst":0.0,"utgst":0.0,"total":0.0},"qty":20.0,"sale_price":10.0,"product_variants":[{"prod_sku":"SKU-0271","display_name":"Lemon (नींबू) - 2pc","thumbnail":"https://storage.googleapis.com/shy-pub/28052/1619596263892_lemon.png","mrp":12.0,"qty":20.0,"sale_price":10.0,"extra_product_fields":[{"ef_id":9560,"slug":"category","name":"Category","type":"TEXT","val":"2pc"}],"show_online":true},{"prod_sku":"SKU-0272","display_name":"Lemon (नींबू) - 4pc","thumbnail":"https://storage.googleapis.com/shy-pub/28052/1619596263892_lemon.png","mrp":24.0,"qty":-8.0,"sale_price":20.0,"extra_product_fields":[{"ef_id":9560,"slug":"category","name":"Category","type":"TEXT","val":"4pc"}],"show_online":true}],"sp_tax_included":true,"show_online":true},{"created_at":"2021-04-28T08:32:31.885+0000","updated_at":"2021-05-09T08:38:28.535+0000","super_prod_sku":"SSK-0227","prod_sku":"SKU-0278","brand":"","display_name":"White Raddish (मूली) - 250g","thumbnail":"https://aftwhtbtmp.cloudimg.io/v7/storage.googleapis.com/shy-pub/28052/1619598751302_image_2021-04-28_140148.png","rank":0,"root_cat_slug":null,"cat_slug":"root-vegetables-fresh-vegetables-28052","mrp":12.0,"cat_name":"Root Vegetables","org_id":28052,"tax_group":{"created_at":null,"updated_at":"2021-05-09T08:38:28.535+0000","id":null,"name":null,"cgst":0.0,"igst":0.0,"sgst":0.0,"utgst":0.0,"total":0.0},"qty":20.0,"sale_price":10.0,"product_variants":[{"prod_sku":"SKU-0280","display_name":"White Raddish (मूली) - 1Kg","thumbnail":"https://aftwhtbtmp.cloudimg.io/v7/storage.googleapis.com/shy-pub/28052/1619598751302_image_2021-04-28_140148.png","mrp":40.0,"qty":5.0,"sale_price":38.0,"extra_product_fields":[{"ef_id":9560,"slug":"category","name":"Category","type":"TEXT","val":"1Kg"}],"show_online":true},{"prod_sku":"SKU-0279","display_name":"White Raddish (मूली) - 500g","thumbnail":"https://aftwhtbtmp.cloudimg.io/v7/storage.googleapis.com/shy-pub/28052/1619598751302_image_2021-04-28_140148.png","mrp":24.0,"qty":10.0,"sale_price":20.0,"extra_product_fields":[{"ef_id":9560,"slug":"category","name":"Category","type":"TEXT","val":"500g"}],"show_online":true},{"prod_sku":"SKU-0278","display_name":"White Raddish (मूली) - 250g","thumbnail":"https://aftwhtbtmp.cloudimg.io/v7/storage.googleapis.com/shy-pub/28052/1619598751302_image_2021-04-28_140148.png","mrp":12.0,"qty":20.0,"sale_price":10.0,"extra_product_fields":[{"ef_id":9560,"slug":"category","name":"Category","type":"TEXT","val":"250g"}],"show_online":true}],"sp_tax_included":true,"show_online":true}],"pageable":{"sort":{"sorted":true,"unsorted":false,"empty":false},"offset":0,"pageNumber":0,"pageSize":10,"unpaged":false,"paged":true},"totalElements":177,"last":false,"totalPages":18,"first":true,"size":10,"number":0,"sort":{"sorted":true,"unsorted":false,"empty":false},"numberOfElements":10,"empty":false},"error":null,"timestamp":1622645947385}
